2020-01-25,"Registration opens"
2020-01-15,"Diversity scholarship submission deadline"
2020-02-10,"Abstract submission deadline"
2020-02-15,"Diversity scholarship notice of acceptance"
2020-03-16,"Abstract notice of acceptance"
2020-04-01,"Early Bird registration rate deadline"
2020-07-06,"Dev Day Events"
2020-07-07,"Tutorial Day"
2020-07-08,"Main Conference Begins"
